…
- `rj_citations`

- `articles`

- `amicus`

- `appointed_judges`

## Example

``` r
library(cccLLM)

appointed_judges
#> # A tibble: 44 × 3
#>    name                            start      end       
#>    <chr>                           <date>     <date>    
#>  1 jaime sanin greiffenstein       1992-02-01 1993-02-01
#>  2 simon rodriguez rodriguez       1992-02-01 1993-02-01
#>  3 fabio moron diaz                1992-02-01 2001-02-01
#>  4 alejandro martinez caballero    1992-02-01 2001-02-01
#>  5 jose gregorio hernandez galindo 1992-02-01 2001-03-01
#>  6 eduardo cifuentes munoz         1992-02-01 2000-02-01
#>  7 ciro angarita baron             1992-02-01 1993-02-01
#>  8 jorge arango mejia              1993-03-01 1998-04-01
#>  9 hernando herrera vergara        1993-03-01 1999-01-01
#> 10 vladimiro naranjo mesa          1993-03-01 2001-02-01
#> # ℹ 34 more rows
rulings
#> # A tibble: 28,242 × 8
#>    id       type  chamber rj    n_person n_amicus summary_en          summary_es
#>    <chr>    <fct> <fct>   <fct>    <int>    <int> <chr>               <chr>     
#>  1 C-001-18 C     SP      no           9        7 "The Colombian Con… "La Corte…
#>  2 C-002-18 C     SP      no           9        9 "The Colombian Con… "La Corte…
#>  3 C-002-93 C     SP      no           7        1 "The Colombian Con… "La Corte…
#>  4 C-002-96 C     SP      no           9        1 "The ruling C-002-… "La sente…
#>  5 C-002-98 C     SP      yes          9        1 "The Colombian Con… "La Sente…
#>  6 C-002-99 C     SP      no           9        2 "The ruling C-002/… "La sente…
#>  7 C-003-17 C     SP      no           9       11 "The Constitutiona… "La Corte…
#>  8 C-003-93 C     SP      no           7        5 "The ruling C-003/… "La sente…
#>  9 C-003-96 C     SP      no           9        1 "The Constitutiona… "La Corte…
#> 10 C-003-98 C     SP      no           9        2 "The ruling C-003/… "La sente…
#> # ℹ 28,232 more rows
person
#> # A tibble: 131,457 × 7
#>    id       name                          mp    av    sv    interim conjuez
#>    <chr>    <chr>                         <lgl> <lgl> <lgl> <lgl>   <lgl>  
#>  1 C-001-18 luis guillermo guerrero perez FALSE FALSE FALSE FALSE   FALSE  
#>  2 C-001-18 carlos bernal pulido          FALSE FALSE TRUE  FALSE   FALSE  
#>  3 C-001-18 diana fajardo rivera          TRUE  FALSE FALSE FALSE   FALSE  
#>  4 C-001-18 alejandro linares cantillo    FALSE FALSE FALSE FALSE   FALSE  
#>  5 C-001-18 antonio jose lizarazo ocampo  FALSE FALSE FALSE FALSE   FALSE  
#>  6 C-001-18 gloria stella ortiz delgado   FALSE FALSE FALSE FALSE   FALSE  
#>  7 C-001-18 cristina pardo schlesinger    FALSE FALSE FALSE FALSE   FALSE  
#>  8 C-001-18 jose fernando reyes cuartas   FALSE FALSE FALSE FALSE   FALSE  
#>  9 C-001-18 alberto rojas rios            FALSE FALSE FALSE FALSE   FALSE  
#> 10 C-002-18 luis guillermo guerrero perez FALSE FALSE FALSE FALSE   FALSE  
#> # ℹ 131,447 more rows
articles
#> # A tibble: 125,156 × 2
#>    id       article
#>    <chr>      <int>
#>  1 C-001-18       1
#>  2 C-001-18      13
#>  3 C-001-18      17
#>  4 C-001-18     241
#>  5 C-001-18     243
#>  6 C-002-18      29
#>  7 C-002-18     158
#>  8 C-002-93      13
#>  9 C-002-93      25
#> 10 C-002-93      26
#> # ℹ 125,146 more rows
rj_citations
#> # A tibble: 4,763 × 2
#>    from     to      
#>    <chr>    <chr>   
#>  1 C-002-98 C-191-96
#>  2 C-003-99 C-018-93
#>  3 C-004-03 C-578-02
#>  4 C-004-93 C-517-92
#>  5 C-004-98 C-109-95
#>  6 C-006-03 C-008-94
#>  7 C-006-98 C-185-97
#>  8 C-007-01 C-533-00
#>  9 C-007-16 C-511-94
#> 10 C-007-98 C-010-97
#> # ℹ 4,753 more rows
```
…
