…
A data frame with two variables:

- `id`:

  Ruling ID

- `article`:

  Article number

## Examples

``` r
  articles
#> # A tibble: 124,021 × 2
#>    id       article
#>    <chr>      <dbl>
#>  1 C-001-18       1
#>  2 C-001-18      13
#>  3 C-001-18      17
#>  4 C-001-18     241
#>  5 C-001-18     243
#>  6 C-002-18      29
#>  7 C-002-18     158
#>  8 C-002-93      13
#>  9 C-002-93      25
#> 10 C-002-93      26
#> # ℹ 124,011 more rows
```
